…
    ## [1] "...live in Africa __"\nQ2(Asia)          
    ## [2] "...live in Africa __"\nQ2(bugs)          
    ## [3] "...live in Africa and Asia"\nQ2(Asia)    
    ## [4] "...live in Africa and eat bugs"\nQ2(bugs)
    ## 4 Levels: "...live in Africa __"\nQ2(Asia) ...

    ## # A tibble: 24 x 9
    ## # Groups:   quantifier, condition [12]
    ##    quantifier condition key       n empirical_stat ci_lower  mean ci_upper
    ##    <chr>      <fct>     <fct> <int>          <dbl>    <dbl> <dbl>    <dbl>
    ##  1 all        "\"...li % li   116          0.986   0.977  0.986    0.994
    ##  2 all        "\"...li % pr   116          0.103   0.0545 0.102    0.153
    ##  3 all        "\"...li % li   116          0.79    0.735  0.790    0.844
    ##  4 all        "\"...li % pr   116          0.791   0.741  0.792    0.842
    ##  5 generic    "\"...li % li    92          0.868   0.824  0.869    0.911
    ##  6 generic    "\"...li % pr    92          0.123   0.0802 0.123    0.171
    ##  7 generic    "\"...li % li    92          0.662   0.603  0.662    0.716
    ##  8 generic    "\"...li % pr    92          0.612   0.549  0.612    0.677
    ##  9 most       "\"...li % li   104          0.835   0.808  0.835    0.861
    ## 10 most       "\"...li % pr   104          0.268   0.207  0.268    0.330
    ## #  with 14 more rows, and 1 more variable: second_query <chr>
…
